%YAML 1.1
%TAG !u! tag:unity3d.com,2011:
--- !u!1001 &3942312174935628439
PrefabInstance:
  m_ObjectHideFlags: 0
  serializedVersion: 2
  m_Modification:
    m_TransformParent: {fileID: 0}
    m_Modifications:
    - target: {fileID: 145698584838830856, guid: 0f9a03296ba4a1145b953e3ff967385d, type: 3}
      propertyPath: m_Name
      value: GreenTubeDrop
      objectReference: {fileID: 0}
    - target: {fileID: 145698584838830862, guid: 0f9a03296ba4a1145b953e3ff967385d, type: 3}
      propertyPath: m_LocalPosition.x
      value: -7.65
      objectReference: {fileID: 0}
    - target: {fileID: 145698584838830862, guid: 0f9a03296ba4a1145b953e3ff967385d, type: 3}
      propertyPath: m_LocalPosition.y
      value: 4.45
      objectReference: {fileID: 0}
    - target: {fileID: 145698584838830862, guid: 0f9a03296ba4a1145b953e3ff967385d, type: 3}
      propertyPath: m_LocalPosition.z
      value: -1
      objectReference: {fileID: 0}
    - target: {fileID: 145698584838830862, guid: 0f9a03296ba4a1145b953e3ff967385d, type: 3}
      propertyPath: m_LocalRotation.x
      value: 0.7071068
      objectReference: {fileID: 0}
    - target: {fileID: 145698584838830862, guid: 0f9a03296ba4a1145b953e3ff967385d, type: 3}
      propertyPath: m_LocalRotation.y
      value: -0
      objectReference: {fileID: 0}
    - target: {fileID: 145698584838830862, guid: 0f9a03296ba4a1145b953e3ff967385d, type: 3}
      propertyPath: m_LocalRotation.z
      value: -0
      objectReference: {fileID: 0}
    - target: {fileID: 145698584838830862, guid: 0f9a03296ba4a1145b953e3ff967385d, type: 3}
      propertyPath: m_LocalRotation.w
      value: 0.7071068
      objectReference: {fileID: 0}
    - target: {fileID: 145698584838830862, guid: 0f9a03296ba4a1145b953e3ff967385d, type: 3}
      propertyPath: m_RootOrder
      value: 0
      objectReference: {fileID: 0}
    - target: {fileID: 145698584838830862, guid: 0f9a03296ba4a1145b953e3ff967385d, type: 3}
      propertyPath: m_LocalEulerAnglesHint.x
      value: 90
      objectReference: {fileID: 0}
    - target: {fileID: 145698584838830862, guid: 0f9a03296ba4a1145b953e3ff967385d, type: 3}
      propertyPath: m_LocalEulerAnglesHint.y
      value: 0
      objectReference: {fileID: 0}
    - target: {fileID: 145698584838830862, guid: 0f9a03296ba4a1145b953e3ff967385d, type: 3}
      propertyPath: m_LocalEulerAnglesHint.z
      value: 0
      objectReference: {fileID: 0}
    m_RemovedComponents: []
  m_SourcePrefab: {fileID: 100100000, guid: 0f9a03296ba4a1145b953e3ff967385d, type: 3}
